<svg width="201" height="199" viewBox="0 0 201 199" fill="none" xmlns="http://www.w3.org/2000/svg">
<path d="M81.5 31.3H120.5L125.5 41.3L100.5 71.3L74.5 42.3L81.5 31.3Z" fill="#9A9ACB"/>
<path d="M129.5 60.3H184.5C184.5 60.3 174.5 75.3 152.5 81.3H137.5L150.5 100.3L125.5 111.3L114.5 76.3L129.5 60.3Z" fill="#9A9ACB"/>
<path d="M71.5 60.3H16.5C16.5 60.3 26.5 75.3 48.5 81.3H63.5L50.5 100.3L75.5 111.3L86.5 76.3L71.5 60.3Z" fill="#9A9ACB"/>
<path d="M95.5 80.3L100.5 87.3L106.5 80.3L120.5 153.3L102.5 167.3L81.5 154.3L95.5 80.3Z" fill="#9A9ACB"/>
</svg>
