<svg width="18" height="18" viewBox="0 0 18 18" fill="none" xmlns="http://www.w3.org/2000/svg">
<path d="M10.9825 9L17.7124 2.26932C17.8976 2.08404 17.9997 1.83685 18 1.57327C18 1.30955 17.8979 1.06207 17.7124 0.877081L17.1227 0.287433C16.9373 0.101714 16.6901 0 16.4262 0C16.1628 0 15.9157 0.101714 15.7302 0.287433L9.00029 7.01768L2.27005 0.287433C2.08493 0.101714 1.83761 0 1.5739 0C1.31049 0 1.06317 0.101714 0.878049 0.287433L0.288 0.877081C-0.096 1.26111 -0.096 1.88573 0.288 2.26932L7.0181 9L0.288 15.7304C0.102732 15.916 0.000731707 16.1631 0.000731707 16.4267C0.000731707 16.6903 0.102732 16.9375 0.288 17.1229L0.877902 17.7126C1.06302 17.8981 1.31049 18 1.57376 18C1.83746 18 2.08478 17.8981 2.2699 17.7126L9.00015 10.9822L15.7301 17.7126C15.9155 17.8981 16.1627 18 16.4261 18H16.4264C16.69 18 16.9371 17.8981 17.1225 17.7126L17.7123 17.1229C17.8974 16.9376 17.9996 16.6903 17.9996 16.4267C17.9996 16.1631 17.8974 15.916 17.7123 15.7305L10.9825 9Z" fill="white"/>
</svg>
